…
```r
# Use this R-Chunk to import all your datasets!
tq_index_options()
```

```
## [1] "DOW"       "DOWGLOBAL" "SP400"     "SP500"     "SP600"
```

```r
tq_index("DOW")
```

```
## # A tibble: 30 x 8
##    symbol company    identifier sedol  weight sector  shares_held local_currency
##    <chr>  <chr>      <chr>      <chr>   <dbl> <chr>         <dbl> <chr>         
##  1 AAPL   Apple Inc. 03783310   20462… 0.0967 Inform…     5668532 USD           
##  2 UNH    UnitedHea… 91324P10   29177… 0.0792 Health…     5668532 USD           
##  3 HD     Home Depo… 43707610   24342… 0.0660 Consum…     5668532 USD           
##  4 MSFT   Microsoft… 59491810   25881… 0.0548 Inform…     5668532 USD           
##  5 GS     Goldman S… 38141G10   24079… 0.0524 Financ…     5668532 USD           
##  6 V      Visa Inc.… 92826C83   B2PZN… 0.0520 Inform…     5668532 USD           
##  7 MCD    McDonald'… 58013510   25507… 0.0487 Consum…     5668532 USD           
##  8 BA     Boeing Co… 09702310   21086… 0.0480 Indust…     5668532 USD           
##  9 MMM    3M Company 88579Y10   25957… 0.0417 Indust…     5668532 USD           
## 10 JNJ    Johnson &… 47816010   24758… 0.0374 Health…     5668532 USD           
## # … with 20 more rows
```
…
